{"name":"test002","id":"com.req.res.testsuite.StudentCURDTest:test002","testCaseName":"com.req.res.testsuite.StudentCURDTest","testSteps":[{"number":1,"description":"GET https://reqres.in/api/users?page\u003d1\r\r","duration":0,"startTime":"2020-05-20T12:26:34.499+01:00[Europe/London]","result":"SUCCESS","restQuery":{"method":"GET","path":"https://reqres.in/api/users?page\u003d1\r\r","content":"\r","contentType":"null","requestHeaders":"Accept\u003d*/*\r\r","requestCookies":"\r\r","responseHeaders":"Date: Wed, 20 May 2020 11:26:34 GMT\nContent-Type: application/json; charset\u003dutf-8\nTransfer-Encoding: chunked\nConnection: keep-alive\nSet-Cookie: __cfduid\u003dd13febadd9ed3759ba938a4bb1204e0db1589973994; expires\u003dFri, 19-Jun-20 11:26:34 GMT; path\u003d/; domain\u003d.reqres.in; HttpOnly; SameSite\u003dLax; Secure\nX-Powered-By: Express\nAccess-Control-Allow-Origin: *\nEtag: W/\"4c5-znzuruTKwnH4068T7ikF88YcCME\"\nVia: 1.1 vegur\nCache-Control: max-age\u003d14400\nCF-Cache-Status: HIT\nAge: 5808\nExpect-CT: max-age\u003d604800, report-uri\u003d\"https://report-uri.cloudflare.com/cdn-cgi/beacon/expect-ct\"\nVary: Accept-Encoding\nServer: cloudflare\nCF-RAY: 5965b417f8e906dd-LHR\nContent-Encoding: gzip\ncf-request-id: 02d36ee2f7000006ddf3bed200000001\r","responseCookies":"__cfduid\u003dd13febadd9ed3759ba938a4bb1204e0db1589973994;Path\u003d/;Domain\u003d.reqres.in;Secure;HttpOnly;Expires\u003d19/06/20 11:26\r","responseBody":"{\n    \"page\": 1,\n    \"per_page\": 6,\n    \"total\": 12,\n    \"total_pages\": 2,\n    \"data\": [\n        {\n            \"id\": 1,\n            \"email\": \"george.bluth@reqres.in\",\n            \"first_name\": \"George\",\n            \"last_name\": \"Bluth\",\n            \"avatar\": \"https://s3.amazonaws.com/uifaces/faces/twitter/calebogden/128.jpg\"\n        },\n        {\n            \"id\": 2,\n            \"email\": \"janet.weaver@reqres.in\",\n            \"first_name\": \"Janet\",\n            \"last_name\": \"Weaver\",\n            \"avatar\": \"https://s3.amazonaws.com/uifaces/faces/twitter/josephstein/128.jpg\"\n        },\n        {\n            \"id\": 3,\n            \"email\": \"emma.wong@reqres.in\",\n            \"first_name\": \"Emma\",\n            \"last_name\": \"Wong\",\n            \"avatar\": \"https://s3.amazonaws.com/uifaces/faces/twitter/olegpogodaev/128.jpg\"\n        },\n        {\n            \"id\": 4,\n            \"email\": \"eve.holt@reqres.in\",\n            \"first_name\": \"Eve\",\n            \"last_name\": \"Holt\",\n            \"avatar\": \"https://s3.amazonaws.com/uifaces/faces/twitter/marcoramires/128.jpg\"\n        },\n        {\n            \"id\": 5,\n            \"email\": \"charles.morris@reqres.in\",\n            \"first_name\": \"Charles\",\n            \"last_name\": \"Morris\",\n            \"avatar\": \"https://s3.amazonaws.com/uifaces/faces/twitter/stephenmoon/128.jpg\"\n        },\n        {\n            \"id\": 6,\n            \"email\": \"tracey.ramos@reqres.in\",\n            \"first_name\": \"Tracey\",\n            \"last_name\": \"Ramos\",\n            \"avatar\": \"https://s3.amazonaws.com/uifaces/faces/twitter/bigmancho/128.jpg\"\n        }\n    ],\n    \"ad\": {\n        \"company\": \"StatusCode Weekly\",\n        \"url\": \"http://statuscode.org/\",\n        \"text\": \"A weekly newsletter focusing on software development, infrastructure, the server, performance, and the stack end of things.\"\n    }\n}","statusCode":200},"precondition":false}],"userStory":{"id":"com.req.res.testsuite.StudentCURDTest","storyName":"Student CURD test","storyClassName":"com.req.res.testsuite.StudentCURDTest","path":"com.req.res.testsuite","type":"story"},"featureTag":{"name":"Testsuite/Student CURD test","type":"story"},"title":"This test will Verify an existing user of the application","tags":[{"name":"Testsuite/Student CURD test","type":"story"}],"startTime":"2020-05-20T12:26:34.155+01:00[Europe/London]","duration":409,"projectKey":"","manual":false,"testSource":"JUnit","result":"SUCCESS"}